Fuentes y colores de los siguientes textos:

Titulo "Secciones"
Arial Bold 28 (R0 G83 B117)

Tutitulo "Noticias"
Arial 27 (R59 G75 B81)

Texto "volver" normal
Arial 22 (R77 G95 B103)

Texto "volver" Pressed
Arial 22 (R0 G83 B117)